<svg xmlns="http://www.w3.org/2000/svg" xmlns:xlink="http://www.w3.org/1999/xlink" preserveAspectRatio="xMidYMid" width="20" height="20" viewBox="0 0 20 20">
  <defs>
    <style>
      .cls-1 {
        fill: #9d9d9d;
        fill-rule: evenodd;
      }
    </style>
  </defs>
  <path d="M10.000,-0.000 C4.477,-0.000 -0.000,4.477 -0.000,10.000 C-0.000,15.522 4.477,20.000 10.000,20.000 C15.522,20.000 20.000,15.522 20.000,10.000 C20.000,4.476 15.522,-0.000 10.000,-0.000 ZM12.585,9.999 L10.946,10.000 L10.945,16.000 L8.696,16.000 L8.696,10.000 L7.196,10.000 L7.196,7.933 L8.696,7.931 L8.694,6.714 C8.694,5.026 9.151,4.000 11.138,4.000 L12.793,4.000 L12.793,6.069 L11.758,6.069 C10.984,6.069 10.946,6.357 10.946,6.896 L10.944,7.931 L12.804,7.931 L12.585,9.999 Z" class="cls-1"/>
</svg>
