{
  "port": 3030,
  "mongoose": {
    "uri": "mongodb://juser:juser2018@ds127038-a0.mlab.com:27038,ds127038-a1.mlab.com:27038/jabrool_v1?replicaSet=rs-ds127038"
  },
  "title": "Jabrool",
  "base_url": "https://jabrool.com",
  "secret": "E$%gb45GW@F$4",
  "items_on_page": 20,
  "urls": {
    "admin_login": "/admin/login",
    "user_uploads": "/uploads/tmp",
    "user_avatars": "/uploads/user_avatars",
    "user_license": "/uploads/user_license",
    "user_vehicle": "/uploads/user_vehicle",
    "order_files": "/uploads/order_files",
    "chat": "/uploads/chat"
  },
  "files": {
    "user_uploads": "/mnt/data001/public/uploads/tmp",
    "user_avatars": "/mnt/data001/public/uploads/user_avatars",
    "user_license": "/mnt/data001/public/uploads/user_license",
    "user_vehicle": "/mnt/data001/public/uploads/user_vehicle",
    "order_files": "/mnt/data001/public/uploads/order_files",
    "chat": "/mnt/data001/public/uploads/chat"
  },
  "mail_config_old": "smtps://apikey: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@smtp.sendgrid.net",
  "mail_config": {
    "host": "smtp.sendgrid.net",
    "port": 25,
    "secure": false,
    "auth": {
      "user": "apikey",
      "pass": "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"
    }
  },
  "mail_sender": "Jabrool < noreply@jabrool.com>",
  "enable_mail": true,
  "enable_sms": true,
  "push": {
    "gcm_sender": "AAAAvNUQRfg:APA91bErLVgdUBReHKMfXYrwPmdW56DCEZ28WnvZR3ovHGpVUrCIwuSvlyk-bMhSCcLYkDgAttSVxhmoNfn8ENA4EkS2-HnEhi-ecGoIMa6xSyf4NGVjWepXVdTNEQgp0ok-YPlioj8TaFd0-lddDo5GyKZl_vYcug",
    "debug": false
  },
  "gmap_key": "AIzaSyDv3Ksy-N2EkaJBCUFS-Qc6q0aRLRT_lS4"
}
